{
  "error": false,
  "isNewApp":false,
  "app_pkg": "com.downing.videodownloader.video.downloader",
  "fbBannr": "2180169108831460_2180171118831259",
  "fbInter": "2180169108831460_2180171395497898",
  "fbNative": "2180169108831460_2180171492164555",
  "fbNativeBnnr": "YOUR_PLACEMENT_ID",
  "AdmobBannr": "ca-app-pub-7144040569254180/2170297334",
  "AdmobInter": "ca-app-pub-7144040569254180/4947653852",
  "AdmobInterSplash":"",
  "AdmobNative": "ca-app-pub-7144040569254180/3634572187",
  "AdmobOpenAds": "ca-app-pub-7144040569254180/4680060540",
  
  "admob_pub_id": "pub-7144040569254180",
  "admob_app_id": "ca-app-pub-7144040569254180~6436845409",
  "adType": "admob",
  "adStatus": "admob",
  "loadMore":false,
  "adNativeCount":5,
  "adMobTime":20
}
