{
  "error": false,
  "isNewApp":false,
  "app_pkg": "com.appzombies.english.gujarati.translator",
  "fbBannr": "545747583864818_670263171413258",
  "fbInter": "545747583864818_670262984746610",
  "fbNative": "545747583864818_670262834746625",
  "fbNativeBnnr": "206761076723476_785200065546238",
  "AdxBannr": "/21753324030,22764336884/com.downshot.voicechanger.voiceeffects.soundeffects.voice.changer.recorder_Banner",
  "AdxInter": "/21753324030,22764336884/com.downshot.voicechanger.voiceeffects.soundeffects.voice.changer.recorder_Interstitial",
  "AdxbInterSplash":"",
  "AdxNative": "/21753324030,22764336884/com.downshot.voicechanger.voiceeffects.soundeffects.voice.changer.recorder_Native",
  "AdxOpenAds": "/21753324030,22764336884/com.downshot.voicechanger.voiceeffects.soundeffects.voice.changer.recorder_AppOpen",
  
  "AdmobBannr": "ca-app-pub-6994117986450416/9701626391",
  "AdmobInter": "ca-app-pub-6994117986450416/4720762459",
  "AdmobInterSplash":"",
  "AdmobNative": "ca-app-pub-6994117986450416/5762381383",
  "AdmobOpenAds": "ca-app-pub-6994117986450416/2134945805",
  
  "admob_pub_id": "pub-6994117986450416",
  "admob_app_id": "ca-app-pub-6994117986450416~8732143745",
  "adType": "fb",
  "adStatus": "admob",
  "loadMore":false,
  "adMobTime":40
}
