{
  "error": false,
  "isNewApp":false,
  "app_pkg": "com.vidchat.videodownloader.video.downloader",
  "fbBannr": "815316616051347_815317419384600",
  "fbInter": "815316616051347_815317462717929",
  "fbNative": "815316616051347_815317522717923",
  "fbNativeBnnr": "YOUR_PLACEMENT_ID",
  "ApplovinBannr": "dd5597c436294502",
  "ApplovinInter": "20cac32cdf08c3de",
  "ApplovinNative": "92669d09efd4fae4",
  "ApplovinOpenAds": "b5946a6be136c1bc",
  "AdmobBannr": "ca-app-pub-8295793237549637/7587288272",
  "AdmobInter": "ca-app-pub-8295793237549637/1105640404",
  "AdmobInterSplash":"",
  "AdmobNative": "ca-app-pub-8295793237549637/8792558734",
  "AdmobOpenAds": "ca-app-pub-8295793237549637/6914416571",
  "admob_pub_id": "pub-8295793237549637",
  "admob_app_id": "ca-app-pub-8295793237549637~9559965053",
  "adType": "admob",
  "adStatus": "admob",
  "loadMore":false,
  "adNativeCount":15,
  "adMobTime":20
}
